[{ 
   "PersonID": 1, 
   "PersonName": "John Cena",
   "PersonDetails": "AND HIS NAME IS..."
}, { 
   "PersonID": 2, 
   "PersonName": "Darth Vader",
   "PersonDetails": "I'm your father"
}, { 
   "PersonID": 3, 
   "PersonName": "Luke Skywalker",
   "PersonDetails": "NOOOOOOOOO"
}]